{
  "name": "ETF2L Highlander Season 9 Premiership Main Season",
  "matches": [
	"1094313",
	"1103284",
	"1095780",
	"1096321",
	"1105784",
	"1105740",
	"1113070",
	"1113151",
	"1112903",
	"1112996",
	"1113019",
	"1112945",
	"1116479",
	"1118814",
	"1118141",
	"1116956",
	"1134321",
	"1134333",
	"1134284",
	"1127333",
	"1144230",
	"1137313",
	"1143413",
	"1138451",
	"1153658",
	"1153530",
	"1147462",
	"1154363",
	"1165214",
	"1165300",
	"1158962",
	"1158911",
	"1157565",
	"1157629",
	"1158872",
	"1158942"
  ],
  "isPrivate": false
}