{
  "name": "ETF2L Highlander Season 12 High Main Season",
  "matches": [
	"1684028",
	"1683971",
	"1682260",
	"1684067",
	"1683120",
	"1690752",
	"1690795",
	"1690782",
	"1690723",
	"1690714",
	"1690766",
	"1690787",
	"1690721",
	"1690750",
	"1689905",
	"1689870",
	"1694984",
	"1696756",
	"1698087",
	"1696905",
	"1697753",
	"1704100",
	"1710247",
	"1704031",
	"1704146",
	"1710170",
	"1710248",
	"1710297",
	"1710092"
  ],
  "isPrivate": false
}