{
  "name": "ETF2L Highlander Season 10 Premiership Main Season",
  "matches": [
	"1331243",
	"1333719",
	"1332537",
	"1338464",
	"1343956",
	"1344033",
	"1344001",
	"1343927",
	"1348473",
	"1348566",
	"1348467",
	"1348556",
	"1356924",
	"1352524",
	"1352603",
	"1356863",
	"1364549",
	"1364564",
	"1359431",
	"1359460",
	"1368951",
	"1368931",
	"1366639",
	"1373445",
	"1374595",
	"1377928",
	"1377973",
	"1382028",
	"1386362",
	"1386446",
	"1385439",
	"1385394",
	"1389687",
	"1389726",
	"1385397",
	"1385528"
  ],
  "isPrivate": false
}